strawberries
…
Let’s look at the top 10 most used chemicals in California and in Florida.

chems_c <- chem_categories_c %>%
  filter(name != "TOTAL)") %>%
  group_by(name) %>% summarise(n = n()) 
#%>%
#  arrange(desc(n)) %>%
 # slice_head(n = 10)

print(chems_c)

# A tibble: 120 × 2
   name                                          n
   <chr>                                     <int>
 1 "ABAMECTIN "                                 10
 2 "ACEQUINOCYL "                               10
 3 "ACETAMIPRID "                               10
 4 "ACIBENZOLAR-S-METHYL "                      10
 5 "AZADIRACHTIN "                              10
 6 "AZOXYSTROBIN "                              10
 7 "BACILLUS AMYLOLIQUEFAC F727 "                5
 8 "BACILLUS AMYLOLIQUEFACIENS MBI 600 "         5
 9 "BACILLUS AMYLOLIQUEFACIENS STRAIN D747 "    10
10 "BACILLUS PUMILUS "                           5
# ℹ 110 more rows
…
